{
    "/js/vendor.js": "/js/vendor.js",
    "/js/app.js": "/js/app.js",
    "/css/app.css": "/css/app.css",
    "/js/manifest.js": "/js/manifest.js",
    "/js/libs.js": "/js/libs.js",
    "/css/libs.css": "/css/libs.css"
}